<?xml version="1.0" encoding="utf-8"?>
<!-- Generator: Adobe Illustrator 18.0.0, SVG Export Plug-In . SVG Version: 6.00 Build 0)  -->
<!DOCTYPE svg PUBLIC "-//W3C//DTD SVG 1.1//EN" "http://www.w3.org/Graphics/SVG/1.1/DTD/svg11.dtd">
<svg version="1.1" id="Layer_1" xmlns="http://www.w3.org/2000/svg" xmlns:xlink="http://www.w3.org/1999/xlink" x="0px" y="0px"
	 viewBox="134 221 244 70" enable-background="new 134 221 244 70" xml:space="preserve">
<g>
	<g>
		<path fill="#002E6E" d="M141.9,235.2h13.6c3.7,0,6.4,1.1,7.9,3.3c0.9,1.3,1.4,2.8,1.4,4.5c0,2-0.6,3.6-1.7,4.9
			c-0.6,0.7-1.4,1.3-2.5,1.8c1.6,0.6,2.8,1.3,3.6,2.1c1.4,1.4,2.1,3.3,2.1,5.7c0,2-0.6,3.9-1.9,5.5c-1.9,2.5-5,3.7-9.1,3.7h-13.4
			L141.9,235.2L141.9,235.2z M153.9,248.5c1.8,0,3.2-0.2,4.3-0.7c1.6-0.8,2.4-2.2,2.4-4.3s-0.9-3.4-2.5-4.2c-1-0.4-2.4-0.6-4.3-0.6
			h-7.7v9.8H153.9L153.9,248.5z M155.4,263.1c2.6,0,4.5-0.8,5.7-2.3c0.7-1,1.1-2.1,1.1-3.5c0-2.3-1-3.8-3.1-4.7
			c-1.1-0.4-2.5-0.7-4.4-0.7h-8.6V263C146.1,263.1,155.4,263.1,155.4,263.1z"/>
		<path fill="#002E6E" d="M183,243.7c1.5,0.8,2.7,1.8,3.5,3c0.8,1.2,1.3,2.5,1.5,4.1c0.2,1.1,0.3,2.7,0.3,5.1h-16.7
			c0.1,2.3,0.6,4.2,1.6,5.6s2.6,2.1,4.8,2.1c2,0,3.6-0.7,4.8-2c0.7-0.8,1.1-1.7,1.4-2.7h3.8c-0.1,0.8-0.4,1.8-1,2.8
			s-1.2,1.9-1.9,2.5c-1.2,1.1-2.6,1.9-4.3,2.3c-0.9,0.2-2,0.3-3.1,0.3c-2.8,0-5.3-1-7.2-3.1c-2-2.1-3-5-3-8.7c0-3.7,1-6.7,3-9
			c2-2.3,4.6-3.5,7.8-3.5C179.9,242.5,181.5,242.9,183,243.7z M184.3,252.7c-0.2-1.7-0.5-3-1.1-4c-1.1-1.9-2.8-2.8-5.3-2.8
			c-1.8,0-3.2,0.6-4.4,1.9s-1.8,2.9-1.9,4.9H184.3L184.3,252.7z"/>
		<path fill="#002E6E" d="M191.1,243h3.7v4c0.3-0.8,1-1.7,2.2-2.8s2.5-1.7,4.1-1.7c0.1,0,0.2,0,0.4,0s0.5,0,0.9,0.1v4.1
			c-0.2,0-0.4-0.1-0.6-0.1c-0.2,0-0.4,0-0.6,0c-2,0-3.4,0.6-4.5,1.9c-1.1,1.2-1.6,2.7-1.6,4.3V266h-3.9L191.1,243L191.1,243z"/>
		<path fill="#002E6E" d="M205.5,234.5h3.7v18.3l9.9-9.8h4.9l-8.8,8.5l9.3,14.4h-4.9l-7.2-11.7l-3.2,3.1v8.6h-3.7V234.5L205.5,234.5
			z"/>
		<path fill="#002E6E" d="M225.4,234.5h3.9V266h-3.9V234.5z"/>
		<path fill="#002E6E" d="M247.1,243.7c1.5,0.8,2.7,1.8,3.5,3c0.8,1.2,1.3,2.5,1.5,4.1c0.2,1.1,0.3,2.7,0.3,5.1h-16.7
			c0.1,2.3,0.6,4.2,1.6,5.6s2.6,2.1,4.8,2.1c2,0,3.6-0.7,4.8-2c0.7-0.8,1.1-1.7,1.4-2.7h3.8c-0.1,0.8-0.4,1.8-1,2.8
			s-1.2,1.9-1.9,2.5c-1.2,1.1-2.6,1.9-4.3,2.3c-0.9,0.2-2,0.3-3.1,0.3c-2.8,0-5.3-1-7.2-3.1c-2-2.1-3-5-3-8.7c0-3.7,1-6.7,3-9
			c2-2.3,4.6-3.5,7.8-3.5C244,242.5,245.5,242.9,247.1,243.7z M248.5,252.7c-0.2-1.7-0.5-3-1.1-4c-1.1-1.9-2.8-2.8-5.3-2.8
			c-1.8,0-3.2,0.6-4.4,1.9s-1.8,2.9-1.9,4.9H248.5L248.5,252.7z"/>
		<path fill="#002E6E" d="M269.4,243h4.3c-0.5,1.5-1.8,4.8-3.6,10.1c-1.4,3.9-2.6,7.2-3.5,9.7c-2.2,5.9-3.8,9.4-4.7,10.7
			c-0.9,1.3-2.5,1.9-4.7,1.9c-0.5,0-1,0-1.2-0.1s-0.7-0.1-1.1-0.2v-3.5c0.7,0.2,1.2,0.3,1.5,0.4c0.3,0,0.6,0.1,0.8,0.1
			c0.7,0,1.2-0.1,1.6-0.4c0.3-0.2,0.6-0.5,0.9-0.9c0.1-0.1,0.3-0.7,0.8-1.8c0.4-1.1,0.8-1.8,1-2.4L253,243h4.4l6.2,18.7L269.4,243z"
			/>
		<path fill="#9DA6AB" d="M276.9,234.5h14.3c2.4,0,4.3,0.4,5.8,1.1c2.9,1.3,4.4,3.8,4.4,7.4c0,1.9-0.4,3.4-1.2,4.6
			c-0.8,1.2-1.9,2.2-3.3,2.9c1.2,0.5,2.1,1.2,2.8,2c0.6,0.8,1,2.1,1,4l0.2,4.2c0,1.2,0.1,2.1,0.3,2.7c0.3,1,0.7,1.6,1.4,1.9v0.7
			h-5.2c-0.1-0.3-0.3-0.6-0.4-1.1c-0.1-0.4-0.2-1.2-0.2-2.5l-0.3-5.3c-0.1-2.1-0.8-3.4-2.2-4.1c-0.8-0.4-2-0.6-3.7-0.6h-9.4v13.5
			h-4.3V234.5L276.9,234.5z M290.8,248.9c2,0,3.5-0.4,4.6-1.2c1.1-0.8,1.7-2.2,1.7-4.3c0-2.2-0.8-3.8-2.4-4.6
			c-0.9-0.4-2-0.6-3.4-0.6h-10.1V249L290.8,248.9L290.8,248.9z"/>
		<path fill="#9DA6AB" d="M305.4,234.5h3.9v4.4h-3.9V234.5z M305.4,243.1h3.9V266h-3.9V243.1z"/>
		<path fill="#9DA6AB" d="M315.2,258.8c0.1,1.3,0.4,2.3,1,3c1,1.2,2.7,1.9,5.2,1.9c1.5,0,2.7-0.3,3.9-0.9c1.1-0.6,1.7-1.6,1.7-2.9
			c0-1-0.4-1.7-1.3-2.3c-0.6-0.3-1.7-0.7-3.4-1.1l-3.1-0.8c-2-0.5-3.5-1-4.4-1.6c-1.7-1-2.5-2.5-2.5-4.3c0-2.2,0.8-3.9,2.4-5.3
			c1.6-1.3,3.7-2,6.4-2c3.5,0,6,1,7.6,3c1,1.3,1.4,2.7,1.4,4.2h-3.6c-0.1-0.9-0.4-1.7-0.9-2.4c-0.9-1-2.5-1.5-4.7-1.5
			c-1.5,0-2.6,0.3-3.4,0.8s-1.2,1.3-1.2,2.2c0,1,0.5,1.8,1.5,2.4c0.6,0.4,1.4,0.7,2.6,0.9l2.6,0.6c2.8,0.7,4.7,1.3,5.7,2
			c1.5,1,2.3,2.5,2.3,4.7c0,2-0.8,3.8-2.4,5.3c-1.6,1.5-4,2.2-7.2,2.2c-3.5,0-5.9-0.8-7.3-2.3c-1.4-1.6-2.2-3.5-2.3-5.8L315.2,258.8
			L315.2,258.8z"/>
		<path fill="#9DA6AB" d="M332.6,234.5h3.7v18.3l9.9-9.8h4.9l-8.8,8.5l9.3,14.4h-4.9l-7.2-11.7l-3.2,3.1v8.6h-3.7L332.6,234.5
			L332.6,234.5z"/>
		<g>
			<path fill="#9DA6AB" d="M142.9,271.3h0.6l1.5,4.2h-0.6l-0.4-1.2h-1.6l-0.5,1.2h-0.6L142.9,271.3z M143.8,273.8l-0.6-1.8l-0.7,1.8
				H143.8z"/>
			<path fill="#9DA6AB" d="M145.6,271.3h1.7c0.6,0,1,0.2,1.3,0.6s0.4,0.8,0.4,1.4c0,0.4-0.1,0.8-0.2,1.2c-0.3,0.6-0.8,0.9-1.5,0.9
				h-1.6L145.6,271.3L145.6,271.3z M147.1,275c0.2,0,0.4,0,0.5-0.1c0.2-0.1,0.4-0.2,0.5-0.4c0.1-0.2,0.2-0.4,0.2-0.6s0-0.3,0-0.4
				c0-0.5-0.1-0.9-0.3-1.2c-0.2-0.3-0.5-0.4-1-0.4h-1v3.2L147.1,275L147.1,275z"/>
			<path fill="#9DA6AB" d="M149.7,271.3h0.8l1.2,3.5l1.2-3.5h0.8v4.2h-0.6V273c0-0.1,0-0.2,0-0.4c0-0.2,0-0.4,0-0.6l-1.2,3.5h-0.5
				l-1.2-3.5v0.1c0,0.1,0,0.3,0,0.5s0,0.4,0,0.5v2.5h-0.5V271.3L149.7,271.3z"/>
			<path fill="#9DA6AB" d="M154.7,271.3h0.6v4.2h-0.6V271.3z"/>
			<path fill="#9DA6AB" d="M156.2,271.3h0.7l2.1,3.4v-3.4h0.5v4.2h-0.6l-2.1-3.4v3.4h-0.5L156.2,271.3L156.2,271.3z"/>
			<path fill="#9DA6AB" d="M160.5,271.3h0.6v4.2h-0.6V271.3z"/>
			<path fill="#9DA6AB" d="M162.4,274.2c0,0.2,0.1,0.4,0.2,0.6c0.2,0.3,0.5,0.4,1,0.4c0.2,0,0.4,0,0.6-0.1c0.3-0.1,0.5-0.3,0.5-0.6
				c0-0.2-0.1-0.4-0.2-0.5c-0.1-0.1-0.4-0.2-0.7-0.2l-0.5-0.1c-0.4-0.1-0.6-0.2-0.8-0.3c-0.3-0.2-0.4-0.4-0.4-0.8s0.1-0.7,0.4-0.9
				c0.3-0.2,0.6-0.4,1.1-0.4c0.4,0,0.8,0.1,1.1,0.3c0.3,0.2,0.4,0.5,0.4,1h-0.7c0-0.2-0.1-0.4-0.2-0.5c-0.2-0.2-0.4-0.3-0.8-0.3
				c-0.3,0-0.5,0.1-0.7,0.2s-0.2,0.3-0.2,0.5s0.1,0.4,0.2,0.5c0.1,0.1,0.4,0.1,0.7,0.2l0.6,0.1c0.3,0.1,0.5,0.2,0.6,0.3
				c0.3,0.2,0.4,0.5,0.4,0.9c0,0.5-0.2,0.8-0.5,1s-0.7,0.3-1.1,0.3c-0.5,0-0.9-0.1-1.2-0.4s-0.4-0.6-0.4-1.1
				C161.8,274.2,162.4,274.2,162.4,274.2z"/>
			<path fill="#9DA6AB" d="M168.9,271.3v0.5h-1.4v3.7h-0.6v-3.7h-1.4v-0.5H168.9z"/>
			<path fill="#9DA6AB" d="M169.5,271.3h1.9c0.3,0,0.6,0,0.8,0.1c0.4,0.2,0.6,0.5,0.6,1c0,0.3,0,0.5-0.2,0.6
				c-0.1,0.2-0.2,0.3-0.4,0.4c0.2,0.1,0.3,0.2,0.4,0.3s0.1,0.3,0.1,0.5v0.6c0,0.2,0,0.3,0,0.4s0.1,0.2,0.2,0.3v0.1h-0.7v-0.1
				c0-0.1,0-0.2,0-0.3v-0.7c0-0.3-0.1-0.5-0.3-0.5c-0.1,0-0.3-0.1-0.5-0.1h-1.2v1.8h-0.6C169.5,275.5,169.5,271.3,169.5,271.3z
				 M171.4,273.2c0.3,0,0.5,0,0.6-0.2c0.2-0.1,0.2-0.3,0.2-0.6c0-0.3-0.1-0.5-0.3-0.6c-0.1-0.1-0.3-0.1-0.5-0.1h-1.3v1.4
				L171.4,273.2L171.4,273.2z"/>
			<path fill="#9DA6AB" d="M174.9,271.3h0.6l1.5,4.2h-0.6l-0.4-1.2h-1.6l-0.5,1.2h-0.6L174.9,271.3z M175.8,273.8l-0.6-1.8l-0.7,1.8
				H175.8z"/>
			<path fill="#9DA6AB" d="M180.1,271.3v0.5h-1.4v3.7h-0.6v-3.7h-1.4v-0.5H180.1z"/>
			<path fill="#9DA6AB" d="M184,271.9c0.3,0.4,0.4,0.8,0.4,1.4s-0.2,1.1-0.5,1.6c-0.4,0.5-0.9,0.7-1.6,0.7c-0.6,0-1.1-0.2-1.5-0.6
				c-0.3-0.4-0.5-0.9-0.5-1.6c0-0.6,0.1-1.1,0.4-1.4c0.4-0.5,0.9-0.8,1.6-0.8C183.1,271.2,183.6,271.4,184,271.9z M183.5,274.6
				c0.2-0.4,0.3-0.8,0.3-1.2c0-0.5-0.1-0.9-0.4-1.2c-0.3-0.3-0.6-0.5-1.1-0.5c-0.4,0-0.8,0.2-1.1,0.4c-0.3,0.3-0.4,0.7-0.4,1.3
				c0,0.5,0.1,0.9,0.4,1.2c0.2,0.3,0.6,0.5,1.1,0.5C182.9,275.1,183.3,274.9,183.5,274.6z"/>
			<path fill="#9DA6AB" d="M185.1,271.3h1.9c0.3,0,0.6,0,0.8,0.1c0.4,0.2,0.6,0.5,0.6,1c0,0.3,0,0.5-0.2,0.6
				c-0.1,0.2-0.2,0.3-0.4,0.4c0.2,0.1,0.3,0.2,0.4,0.3s0.1,0.3,0.1,0.5v0.6c0,0.2,0,0.3,0,0.4s0.1,0.2,0.2,0.3v0.1h-0.7v-0.1
				c0-0.1,0-0.2,0-0.3v-0.7c0-0.3-0.1-0.5-0.3-0.5c-0.1,0-0.3-0.1-0.5-0.1h-1.2v1.8h-0.6L185.1,271.3L185.1,271.3z M187,273.2
				c0.3,0,0.5,0,0.6-0.2c0.2-0.1,0.2-0.3,0.2-0.6c0-0.3-0.1-0.5-0.3-0.6c-0.1-0.1-0.3-0.1-0.5-0.1h-1.3v1.4L187,273.2L187,273.2z"/>
			<path fill="#9DA6AB" d="M189.6,274.2c0,0.2,0.1,0.4,0.2,0.6c0.2,0.3,0.5,0.4,1,0.4c0.2,0,0.4,0,0.6-0.1c0.3-0.1,0.5-0.3,0.5-0.6
				c0-0.2-0.1-0.4-0.2-0.5c-0.1-0.1-0.4-0.2-0.7-0.2l-0.5-0.1c-0.4-0.1-0.6-0.2-0.8-0.3c-0.3-0.2-0.4-0.4-0.4-0.8s0.1-0.7,0.4-0.9
				c0.3-0.2,0.6-0.4,1.1-0.4c0.4,0,0.8,0.1,1.1,0.3c0.3,0.2,0.4,0.5,0.4,1h-0.5c0-0.2-0.1-0.4-0.2-0.5c-0.2-0.2-0.4-0.3-0.8-0.3
				c-0.3,0-0.6,0.1-0.7,0.2c-0.1,0.1-0.2,0.3-0.2,0.5s0.1,0.4,0.2,0.5c0.1,0.1,0.4,0.1,0.7,0.2l0.6,0.1c0.3,0.1,0.5,0.2,0.6,0.3
				c0.3,0.2,0.4,0.5,0.4,0.9c0,0.5-0.2,0.8-0.5,1s-0.7,0.3-1.1,0.3c-0.5,0-0.9-0.1-1.2-0.4s-0.4-0.6-0.4-1.1
				C189.1,274.2,189.6,274.2,189.6,274.2z"/>
			<path fill="#9DA6AB" d="M197.7,271.6c0.3,0.3,0.5,0.6,0.5,0.9h-0.5c-0.1-0.3-0.2-0.5-0.4-0.6c-0.2-0.2-0.4-0.2-0.8-0.2
				c-0.4,0-0.7,0.1-1,0.4c-0.2,0.3-0.4,0.7-0.4,1.3c0,0.5,0.1,0.9,0.3,1.2c0.2,0.3,0.6,0.5,1,0.5s0.7-0.2,0.9-0.5
				c0.1-0.2,0.2-0.4,0.3-0.7h0.6c0,0.4-0.2,0.8-0.5,1.1c-0.3,0.4-0.8,0.5-1.3,0.5s-0.9-0.2-1.2-0.4c-0.4-0.4-0.6-1-0.6-1.8
				c0-0.6,0.2-1.1,0.5-1.5c0.4-0.4,0.8-0.6,1.4-0.6C197,271.2,197.4,271.3,197.7,271.6z"/>
			<path fill="#9DA6AB" d="M202.4,271.9c0.3,0.4,0.4,0.8,0.4,1.4s-0.2,1.1-0.5,1.6c-0.4,0.5-0.9,0.7-1.6,0.7c-0.6,0-1.1-0.2-1.5-0.6
				c-0.3-0.4-0.5-0.9-0.5-1.6c0-0.6,0.1-1.1,0.4-1.4c0.4-0.5,0.9-0.8,1.6-0.8C201.5,271.2,202.1,271.4,202.4,271.9z M201.9,274.6
				c0.2-0.4,0.3-0.8,0.3-1.2c0-0.5-0.1-0.9-0.4-1.2c-0.3-0.3-0.6-0.5-1.1-0.5c-0.4,0-0.8,0.2-1.1,0.4c-0.3,0.3-0.4,0.7-0.4,1.3
				c0,0.5,0.1,0.9,0.4,1.2c0.2,0.3,0.6,0.5,1.1,0.5C201.3,275.1,201.7,274.9,201.9,274.6z"/>
			<path fill="#9DA6AB" d="M203.5,271.3h0.8l1.2,3.5l1.2-3.5h0.8v4.2H207V273c0-0.1,0-0.2,0-0.4s0-0.4,0-0.6l-1.2,3.5h-0.6L204,272
				v0.1c0,0.1,0,0.3,0,0.5s0,0.4,0,0.5v2.5h-0.5V271.3L203.5,271.3z"/>
			<path fill="#9DA6AB" d="M208.4,271.3h1.9c0.4,0,0.7,0.1,0.9,0.3c0.2,0.2,0.3,0.5,0.3,0.9c0,0.3-0.1,0.6-0.3,0.9s-0.5,0.4-0.9,0.4
				H209v1.8h-0.6V271.3L208.4,271.3z M210.6,271.9c-0.1-0.1-0.3-0.1-0.5-0.1H209v1.4h1.1c0.3,0,0.5,0,0.6-0.2
				c0.2-0.1,0.2-0.3,0.2-0.6C210.9,272.2,210.8,272,210.6,271.9z"/>
			<path fill="#9DA6AB" d="M213,271.3h0.6l1.5,4.2h-0.6l-0.4-1.2h-1.6l-0.5,1.2h-0.6L213,271.3z M213.9,273.8l-0.6-1.8l-0.7,1.8
				H213.9z"/>
			<path fill="#9DA6AB" d="M215.7,271.3h0.7l2.1,3.4v-3.4h0.5v4.2h-0.6l-2.1-3.4v3.4h-0.5L215.7,271.3L215.7,271.3z"/>
			<path fill="#9DA6AB" d="M219.5,271.3h0.7l1.2,2l1.2-2h0.7l-1.6,2.5v1.7h-0.6v-1.7L219.5,271.3z"/>
		</g>
	</g>
	<g>
		<path fill="#0E553F" d="M370.3,269.4c0,3.7-3,6.8-6.8,6.8c-3.7,0-6.8-3-6.8-6.8v-11.3h2.2v6.3c1.2-1.1,2.8-1.8,4.6-1.8
			C367.2,262.6,370.3,265.7,370.3,269.4L370.3,269.4z M363.5,274c2.5,0,4.6-2.1,4.6-4.6s-2.1-4.6-4.6-4.6s-4.6,2.1-4.6,4.6
			C358.9,272,361,274,363.5,274z"/>
		<path fill="#0E553F" d="M363.5,269.6l2.1-1.4c0.3-0.2,1.4-0.7,1.7-0.7c-0.4,0.6-0.6,0.7-0.6,2.2c0,0.8,0,2.6-1.3,2.8
			c-0.4,0.1-1.2,0-1.4,0.1c-0.2,0-0.4,0.2-0.4,0.3c-0.1-0.1-0.3-0.2-0.4-0.3c-0.2,0-0.9,0-1.4-0.1c-1.4-0.3-1.4-2.1-1.4-2.8
			c0-1.5-0.2-1.6-0.6-2.2c0.3,0,1.4,0.5,1.7,0.7L363.5,269.6L363.5,269.6z M361,268.4c0.2,0.4,0.1,1.4,0.1,2.1
			c0,0.8,0.4,1.5,1.2,1.5c0.8,0,1.2-0.6,1.2-1.3c0-0.9-0.3-1.2-0.7-1.2c-0.3,0-0.7,0.1-0.7,0.9c0.4-0.3,0.7-0.1,0.7,0.3
			s-0.2,0.5-0.4,0.5s-0.5-0.1-0.5-0.6s0-1.1,0-1.4C361.9,268.8,361.6,268.4,361,268.4L361,268.4z M362.3,270.8
			c0.1,0,0.2-0.1,0.2-0.2s-0.1-0.2-0.2-0.2c-0.1,0-0.2,0.1-0.2,0.2S362.2,270.8,362.3,270.8L362.3,270.8z M365.2,269.2
			c0,0.2,0,0.8,0,1.4s-0.3,0.6-0.5,0.6s-0.4-0.2-0.4-0.5c0-0.4,0.3-0.6,0.7-0.3c0-0.8-0.5-0.9-0.7-0.9c-0.4,0.1-0.7,0.4-0.7,1.2
			c0,0.6,0.4,1.3,1.2,1.3c0.8,0,1.2-0.7,1.2-1.5c0-0.7-0.1-1.7,0.1-2.1C365.5,268.4,365.2,268.8,365.2,269.2L365.2,269.2z
			 M364.9,270.6c0-0.1-0.1-0.2-0.2-0.2c-0.1,0-0.2,0.1-0.2,0.2s0.1,0.2,0.2,0.2C364.8,270.8,364.9,270.7,364.9,270.6L364.9,270.6z
			 M363.5,269.3l2.1-1.5c-0.2,0.2-1.4,0.1-2.1,0.1s-1.9,0-2.1-0.1L363.5,269.3L363.5,269.3z M363.5,272.6c0.1-0.1,0.3-0.5,0.3-0.6
			c0-0.2-0.2-0.4-0.3-0.4c-0.1,0.1-0.3,0.2-0.3,0.4C363.2,272.1,363.4,272.5,363.5,272.6z"/>
		<g>
			<path fill="#0E553F" d="M275.6,272.4h-0.3c-1.7,0-3,1.3-3,2.4c0,0.5,0.3,0.8,0.6,0.8c0.2,0,0.5-0.2,1.2-0.9l0,0
				c0,0.1,0,0.4,0,0.5c0,0.3,0.2,0.4,0.4,0.4c0.4,0,0.9-0.5,1.3-0.9l-0.2-0.1c-0.2,0.2-0.4,0.4-0.4,0.4c-0.1,0-0.1-0.1,0-0.2
				L275.6,272.4L275.6,272.4z M274.2,274.3c-0.4,0.4-0.5,0.5-0.7,0.5s-0.3-0.2-0.3-0.5c0-0.8,0.4-1.4,1.2-1.4L274.2,274.3z"/>
			<path fill="#0E553F" d="M286.4,270.8h-2l-0.1,0.4c0.3,0,0.5,0.1,0.5,0.4c0,0.1-0.1,0.3-0.2,0.5l-1.9,2.2l0,0l0.2-2.3
				c0-0.6,0.1-0.8,0.7-0.8l0.1-0.4h-2.3l-0.1,0.4c0.4,0,0.5,0.3,0.5,0.7l-2,2.4l0,0l0.2-2.5c0-0.4,0.2-0.6,0.7-0.6l0.1-0.4h-2.4
				l-0.1,0.4c0.5,0,0.6,0.2,0.5,0.9l-0.2,3.6h0.6l2.6-3.1l0,0l-0.2,3.1h0.6l3.1-3.7c0.6-0.7,0.7-0.8,1.2-0.8L286.4,270.8z"/>
			<path fill="#0E553F" d="M284,275.1c0,0.3,0.2,0.6,0.6,0.6c0.4,0,0.7-0.3,0.7-0.6c0-0.4-0.2-0.6-0.6-0.6
				C284.3,274.4,284,274.7,284,275.1z"/>
			<path fill="#0E553F" d="M293.2,275.2c-0.3,0-0.7-0.1-0.9-0.3c-0.3-0.3-0.6-0.8-0.7-1.5c0.8-0.3,1.2-0.7,1.2-1.3
				c0-0.7-0.5-1.2-1.6-1.2h-2.4l-0.1,0.4c0.4,0,0.6,0.1,0.6,0.4c0,0.1,0,0.2-0.1,0.4l-0.5,2.3c-0.1,0.6-0.2,0.8-0.9,0.8l-0.1,0.4
				h2.6l0.1-0.4c-0.5,0-0.7-0.1-0.7-0.4c0-0.1,0-0.2,0.1-0.5l0.2-0.8h0.4c0.1,0.6,0.4,1.2,0.7,1.5c0.4,0.4,0.8,0.5,1.5,0.5h0.3
				L293.2,275.2L293.2,275.2z M290.4,271.2c0.5,0,1,0.1,1,0.8c0,0.6-0.4,1.2-1.4,1.1L290.4,271.2z"/>
			<path fill="#0E553F" d="M293.7,275.1c0,0.3,0.2,0.6,0.6,0.6c0.4,0,0.7-0.3,0.7-0.6c0-0.4-0.2-0.6-0.6-0.6
				C294,274.4,293.7,274.7,293.7,275.1z"/>
			<path fill="#0E553F" d="M298.3,270.8l-0.1,0.4c0.5,0,0.7,0.1,0.7,0.4c0,0.1,0,0.3-0.1,0.4l-0.5,2.3c-0.2,0.7-0.3,0.8-0.8,0.9
				l-0.1,0.4h2.8c1.4,0,2-0.8,2-1.5c0-0.5-0.4-0.9-1.1-1.1l0,0c0.8-0.1,1.3-0.5,1.3-1.1s-0.5-1-1.7-1L298.3,270.8L298.3,270.8z
				 M300.1,271.2c0.7,0,1.2,0,1.2,0.6c0,0.8-0.7,0.9-1.5,0.9L300.1,271.2L300.1,271.2z M299.7,273.1c1,0,1.4,0.2,1.4,0.9
				c0,0.4-0.2,1.2-1.1,1.2c-0.4,0-0.6-0.1-0.6-0.4c0-0.1,0-0.2,0.1-0.5L299.7,273.1z"/>
			<path fill="#0E553F" d="M305.4,274.8c-0.3,0.2-0.6,0.3-0.9,0.3c-0.4,0-0.6-0.2-0.6-0.7c0-0.1,0-0.2,0-0.2
				c1.2-0.4,1.7-0.7,1.7-1.2c0-0.4-0.3-0.6-0.7-0.6c-1.2,0-2.1,1.4-2.1,2.3c0,0.6,0.4,1,0.9,1s1.2-0.3,1.7-0.7V274.8L305.4,274.8z
				 M304,274c0.2-0.9,0.4-1.4,0.6-1.4c0.1,0,0.2,0.1,0.2,0.4C304.9,273.4,304.5,273.8,304,274z"/>
			<path fill="#0E553F" d="M306.1,273.5c0.1-0.1,0.3-0.4,0.4-0.4c0.1,0,0,0.2,0,0.3l-0.4,2c0,0.1,0,0.2,0.1,0.2h0.5
				c0.3,0,0.3,0,0.4-0.2l0.1-0.4c0.3-1.1,0.5-1.6,0.8-1.6c0.1,0,0.2,0.1,0.3,0.1c0.3,0,0.5-0.5,0.5-0.7s-0.2-0.4-0.4-0.4
				c-0.4,0-0.7,0.4-0.9,1l-0.4,1.2H307c0.2-1,0.4-1.7,0.4-1.9c0-0.2-0.1-0.4-0.3-0.4c-0.3,0-0.7,0.4-1.1,1L306.1,273.5z"/>
			<path fill="#0E553F" d="M310.1,273.5l0.5-2.6c0-0.1,0-0.2,0-0.3c0-0.1-0.1-0.1-0.2-0.1c0,0-0.1,0-0.2,0l-1.2,0.4l0.1,0.2
				c0.1,0,0.2,0,0.2,0c0.1,0,0.1,0,0.1,0.1l0,0c0,0.1,0,0,0,0.2l-0.8,3.7c0,0.1,0,0.2,0,0.2c0,0.1,0,0.1,0.2,0.1h0.6
				c0.1,0,0.2-0.1,0.2-0.2l0.2-1.2c0.2,0.2,0.5,0.9,0.8,1.2c0.2,0.2,0.4,0.3,0.7,0.3l0.9-0.9l-0.2-0.2l-0.3,0.4
				c-0.4-0.1-0.5-0.5-0.9-0.9c0.8-0.1,1.3-0.5,1.3-1c0-0.4-0.2-0.7-0.6-0.7c-0.2,0-0.4,0.1-0.7,0.3
				C310.7,272.8,310.4,273.1,310.1,273.5L310.1,273.5L310.1,273.5z M310,274c0.2-0.3,0.9-0.9,1.1-0.9c0.1,0,0.2,0.1,0.2,0.2
				C311.3,273.7,310.8,274,310,274z"/>
			<path fill="#0E553F" d="M314.5,274.8c-0.2,0.2-0.3,0.3-0.5,0.3c-0.1,0-0.1-0.1-0.1-0.4l0.7-3.4c0.1-0.4,0.1-0.6,0.1-0.7
				s0-0.1-0.1-0.1c-0.1,0-0.2,0-0.5,0.1l-0.9,0.4l0.1,0.2c0.1,0,0.2-0.1,0.2-0.1c0.1,0,0.1,0.1,0.1,0.4l-0.5,2.5
				c-0.1,0.4-0.2,0.9-0.2,1.2c0,0.3,0.2,0.5,0.4,0.5c0.3,0,0.9-0.3,1.2-0.7L314.5,274.8z"/>
			<path fill="#0E553F" d="M317.5,274.8c-0.3,0.2-0.6,0.3-0.9,0.3c-0.4,0-0.6-0.2-0.6-0.7c0-0.1,0-0.2,0-0.2
				c1.2-0.4,1.7-0.7,1.7-1.2c0-0.4-0.3-0.6-0.7-0.6c-1.2,0-2.1,1.4-2.1,2.3c0,0.6,0.4,1,0.9,1s1.2-0.3,1.7-0.7V274.8L317.5,274.8z
				 M316.1,274c0.2-0.9,0.4-1.4,0.6-1.4c0.1,0,0.2,0.1,0.2,0.4C317,273.4,316.6,273.8,316.1,274z"/>
			<path fill="#0E553F" d="M318.2,273.3c0.2-0.2,0.3-0.3,0.4-0.3c0.3,0,0.4,1.1,0.4,1.8c0,0.9-0.5,2-0.7,2.2
				c-0.1,0.1-0.3,0.2-0.6,0.2v0.2h2.2v-0.2c-0.4,0-0.4-0.1-0.4-0.2s0.4-1.1,1-2.1c0.6-1,1-1.5,1-2c0-0.3-0.2-0.5-0.5-0.5
				s-0.6,0.2-0.6,0.5c0,0.2,0.2,0.3,0.2,0.5c0,0.3-0.4,1.5-0.7,2l0,0c0-0.3,0-0.9,0-1.1c0-1.4-0.3-1.9-0.8-1.9c-0.3,0-0.7,0.3-1,0.8
				L318.2,273.3z"/>
			<path fill="#0E553F" d="M328.7,274.3c-0.5,0.7-1,1-1.6,1c-0.9,0-1.3-0.5-1.3-1.6c0-1.3,0.7-2.6,2-2.6c0.8,0,1.2,0.5,1.2,1.2h0.4
				l0.3-1.3c-0.5-0.2-1.1-0.3-1.7-0.3c-2.5,0-3.4,1.7-3.4,2.8c0,1.2,0.9,2.1,2.3,2.1c0.5,0,1.1-0.1,1.3-0.1c0.1,0,0.1,0,0.2,0.1h0.3
				l0.4-1.3L328.7,274.3L328.7,274.3z"/>
			<path fill="#0E553F" d="M329.8,274.6c0,0.6,0.4,1.1,1,1.1c0.9,0,2.2-0.8,2.2-2.2c0-0.7-0.4-1.1-1-1.1
				C330.9,272.4,329.8,273.4,329.8,274.6L329.8,274.6z M330.9,274.4c0-0.9,0.3-1.7,0.6-1.7c0.2,0,0.4,0.3,0.4,0.9
				c0,1-0.3,1.7-0.7,1.7C331,275.3,330.9,275,330.9,274.4z"/>
			<path fill="#0E553F" d="M338.8,274.6c-0.2,0.2-0.4,0.4-0.5,0.4c-0.1,0-0.1-0.1,0-0.3l0.2-1.2c0.1-0.3,0.1-0.6,0.1-0.7
				c0-0.3-0.2-0.5-0.4-0.5c-0.3,0-0.7,0.2-1.1,0.7l-0.4,0.5l0,0l0,0l0,0v-0.2c0-0.2,0.1-0.4,0.1-0.5c0-0.3-0.1-0.5-0.4-0.5
				c-0.4,0-0.9,0.5-1.5,1.2l0,0c0-0.2,0.1-0.4,0.1-0.7c0-0.3-0.1-0.5-0.4-0.5c-0.4,0-0.9,0.5-1.2,1l0.2,0.1c0.2-0.3,0.3-0.4,0.4-0.4
				c0,0,0.1,0,0.1,0.1c0,0,0,0.2,0,0.3l-0.4,1.7c0,0.1,0,0.2,0,0.3c0,0.1,0.1,0.1,0.2,0.1h0.5c0.2,0,0.2,0,0.3-0.2l0.2-1.2
				c0.4-0.6,0.8-1,0.9-1c0.1,0,0.1,0,0.1,0.3l-0.3,1.5c0,0.2-0.1,0.4-0.1,0.5s0.1,0.1,0.2,0.1h0.5c0.2,0,0.2,0,0.3-0.2l0.2-1.2
				c0.5-0.6,0.8-1,0.9-1c0,0,0.1,0,0.1,0.1c0,0,0,0.2,0,0.3l-0.2,1.2c0,0.1,0,0.2,0,0.4c0,0.3,0.2,0.5,0.5,0.5
				c0.4,0,0.7-0.3,1.2-0.9L338.8,274.6z"/>
			<path fill="#0E553F" d="M340.5,275.5c0.1,0.1,0.3,0.1,0.5,0.1c0.7,0,1.8-0.8,1.8-2.1c0-0.7-0.4-1.1-0.6-1.1s-0.6,0.3-1.2,1.2l0,0
				c0-0.2,0.1-0.4,0.1-0.6c0-0.4-0.2-0.6-0.5-0.6c-0.4,0-0.8,0.3-1.3,1l0.2,0.1c0.2-0.3,0.4-0.5,0.5-0.5l0.1,0.1c0,0.1,0,0.2,0,0.4
				l-0.5,2.6c-0.1,0.7-0.3,0.8-0.8,0.8v0.2h2.4v-0.2c-0.5,0-0.6-0.1-0.6-0.4c0-0.1,0-0.3,0.1-0.5L340.5,275.5L340.5,275.5z
				 M341.3,273.4c0.1-0.1,0.2-0.2,0.3-0.2c0.1,0,0.2,0.2,0.2,0.5c0,0.8-0.4,1.6-0.7,1.6c-0.2,0-0.3-0.2-0.4-0.4l0.2-0.8L341.3,273.4
				z"/>
			<path fill="#0E553F" d="M346.5,272.4h-0.3c-1.7,0-3,1.3-3,2.4c0,0.5,0.3,0.8,0.6,0.8c0.2,0,0.5-0.2,1.2-0.9l0,0
				c0,0.1,0,0.4,0,0.5c0,0.3,0.2,0.4,0.4,0.4c0.4,0,0.9-0.5,1.3-0.9l-0.2-0.1c-0.2,0.2-0.4,0.4-0.4,0.4c-0.1,0-0.1-0.1,0-0.2
				L346.5,272.4L346.5,272.4z M345.1,274.3c-0.4,0.4-0.5,0.5-0.7,0.5s-0.3-0.2-0.3-0.5c0-0.8,0.4-1.4,1.2-1.4L345.1,274.3z"/>
			<path fill="#0E553F" d="M347.2,273.5c0.2-0.3,0.3-0.4,0.4-0.4c0,0,0.1,0,0.1,0.1v0.2l-0.4,1.7c0,0.1,0,0.2,0,0.3
				c0,0.1,0,0.1,0.1,0.1h0.6c0.2,0,0.2-0.1,0.3-0.3l0.2-1.1c0.5-0.6,0.8-1,0.9-1c0,0,0.1,0,0.1,0.1s0,0.1-0.1,0.3l-0.2,0.9
				c-0.1,0.4-0.1,0.5-0.1,0.7s0.1,0.5,0.5,0.5c0.2,0,0.6,0,1.2-0.9l-0.2-0.1c-0.2,0.3-0.4,0.4-0.4,0.4s-0.1,0-0.1-0.1
				c0,0,0-0.1,0.1-0.6l0.2-0.9c0.1-0.4,0.1-0.5,0.1-0.7s-0.1-0.4-0.4-0.4c-0.4,0-0.8,0.4-1.5,1.2l0,0c0.1-0.3,0.1-0.6,0.1-0.8
				c0-0.3-0.1-0.5-0.4-0.5c-0.4,0-0.8,0.3-1.3,1L347.2,273.5z"/>
			<path fill="#0E553F" d="M351.1,273.3c0.2-0.2,0.3-0.3,0.4-0.3c0.3,0,0.4,1.1,0.4,1.8c0,0.9-0.5,2-0.7,2.2
				c-0.1,0.1-0.3,0.2-0.6,0.2v0.2h2.2v-0.2c-0.4,0-0.4-0.1-0.4-0.2s0.4-1.1,1-2.1c0.6-1,1-1.5,1-2c0-0.3-0.2-0.5-0.5-0.5
				s-0.6,0.2-0.6,0.5c0,0.2,0.2,0.3,0.2,0.5c0,0.3-0.4,1.5-0.7,2l0,0c0-0.3,0-0.9,0-1.1c0-1.4-0.3-1.9-0.8-1.9c-0.3,0-0.7,0.3-1,0.8
				L351.1,273.3z"/>
		</g>
		<g>
			<path fill="#0E553F" d="M370.2,275.4c0.3,0,0.5,0.2,0.5,0.5s-0.2,0.5-0.5,0.5s-0.5-0.2-0.5-0.5
				C369.7,275.7,369.9,275.4,370.2,275.4L370.2,275.4z M370.2,275.5c-0.2,0-0.4,0.2-0.4,0.4c0,0.2,0.2,0.4,0.4,0.4
				c0.2,0,0.4-0.2,0.4-0.4C370.6,275.7,370.4,275.5,370.2,275.5L370.2,275.5L370.2,275.5z M370.1,276.2H370v-0.5c0,0,0.1,0,0.2,0
				c0.1,0,0.1,0,0.2,0l0.1,0.1c0,0.1,0,0.1-0.1,0.1l0,0l0.1,0.1c0,0.1,0,0.1,0,0.1h-0.1V276c0-0.1,0-0.1-0.1-0.1h-0.1L370.1,276.2
				L370.1,276.2z M370.1,275.9L370.1,275.9c0.1,0,0.2,0,0.2-0.1c0,0,0-0.1-0.1-0.1h-0.1V275.9L370.1,275.9z"/>
		</g>
	</g>
</g>
</svg>
