/*********************** BUILD SELECT QUERIES *********************************/
-- ORDERED STEPS
-- REVISIT : SEARCH LABEL ENTRIES, SKIPPING AT THIS TIME
-- REVISIT : LABEL ENTRIES, SKIPPING AT THIS TIME
-- DELETE ROLE HISTORY ENTRIES
-- DELETE ROLE ENTRIES
-- DELETE MASTER HISTORY ENTRIES
-- DELETE MASTER ENTRIES

-- get master ids we are concerned with, this query will be used for role and history
SELECT n_clt_id  FROM CLIENT_MASTER WHERE (d_clt_bk BETWEEN '2009-02-10 13:15:00.000' AND '2009-02-10 17:10:30.000') AND n_clt_id NOT IN (804,823,70692,70801,70860,70936,70945,70986,70997,71055,71087,71212,71370,71441,71537,71582,71660,71666,71671,71707,71801,71843,71854,71863,71870,71891,71916,72195,72257,72324,72382,72439,72860,73154,73306,73432,73579,73672,73702,73708,73714,73727,73732,73752,73759,73767,73836,73846,73854,73864,73914,73982,74029,74034,74081,74124,74125,74211,74232,74252,74294,74311,74366,74378,74384,74632,74742,74791,74817,74841,74843,74878,78898,79027,79034,79130,79144,79165,79221,79279,79339,79372,79397,79445,79535,79550,79558,79583,79907,79975,80013,80035,80064,80108,80111,80162,80207,80280,80285,80384,80526,80584,80717,80738,80749,80759,80774,80818,80849,80929,81026,81051,81118,81284,81300,81340,81368,81624,81727,81857,81873,81945,82138,82140,82141,82326,82341,82474,82476,82563,82623,82624) ORDER BY n_clt_id DESC;

-- get our role ids we are concerned with
SELECT n_clt_lbl_id FROM informix.client_role WHERE (d_crol_bk BETWEEN '2009-02-10 13:15:00.000' AND '2009-02-10 17:10:30.000') AND t_crol_sys_id = 'CLRN' ORDER BY n_clt_lbl_id DESC;


--TODO : client_label_srch, the in subquery is a copy of the second query except the order by clause
SELECT * FROM informix.client_label_srch WHERE n_clt_lbl_id IN (SELECT n_clt_lbl_id FROM informix.client_role WHERE (d_crol_bk BETWEEN '2009-02-10 13:15:00.000' AND '2009-02-10 17:10:30.000') AND t_crol_sys_id = 'CLRN')


--TODO : client_label, the in subquery is a copy of the second query except the order by clause
SELECT * FROM informix.client_label WHERE n_clt_lbl_id IN (SELECT n_clt_lbl_id FROM informix.client_role WHERE (d_crol_bk BETWEEN '2009-02-10 13:15:00.000' AND '2009-02-10 17:10:30.000') AND t_crol_sys_id = 'CLRN')

-- client role history will need two passes
-- 1. based on new client masters, the in subquery is a copy of the first query except the order by clause
SELECT * FROM client_role_h WHERE n_clt_id IN (SELECT n_clt_id  FROM CLIENT_MASTER WHERE (d_clt_bk BETWEEN '2009-02-10 13:15:00.000' AND '2009-02-10 17:10:30.000') AND n_clt_id NOT IN (804,823,70692,70801,70860,70936,70945,70986,70997,71055,71087,71212,71370,71441,71537,71582,71660,71666,71671,71707,71801,71843,71854,71863,71870,71891,71916,72195,72257,72324,72382,72439,72860,73154,73306,73432,73579,73672,73702,73708,73714,73727,73732,73752,73759,73767,73836,73846,73854,73864,73914,73982,74029,74034,74081,74124,74125,74211,74232,74252,74294,74311,74366,74378,74384,74632,74742,74791,74817,74841,74843,74878,78898,79027,79034,79130,79144,79165,79221,79279,79339,79372,79397,79445,79535,79550,79558,79583,79907,79975,80013,80035,80064,80108,80111,80162,80207,80280,80285,80384,80526,80584,80717,80738,80749,80759,80774,80818,80849,80929,81026,81051,81118,81284,81300,81340,81368,81624,81727,81857,81873,81945,82138,82140,82141,82326,82341,82474,82476,82563,82623,82624));
-- 2. based on new prospects for old masters
SELECT * FROM client_role_h WHERE (d_crol_bk BETWEEN '2009-02-10 13:15:00.000' AND '2009-02-10 17:10:30.000') AND n_clt_id in (804,823,70692,70801,70860,70936,70945,70986,70997,71055,71087,71212,71370,71441,71537,71582,71660,71666,71671,71707,71801,71843,71854,71863,71870,71891,71916,72195,72257,72324,72382,72439,72860,73154,73306,73432,73579,73672,73702,73708,73714,73727,73732,73752,73759,73767,73836,73846,73854,73864,73914,73982,74029,74034,74081,74124,74125,74211,74232,74252,74294,74311,74366,74378,74384,74632,74742,74791,74817,74841,74843,74878,78898,79027,79034,79130,79144,79165,79221,79279,79339,79372,79397,79445,79535,79550,79558,79583,79907,79975,80013,80035,80064,80108,80111,80162,80207,80280,80285,80384,80526,80584,80717,80738,80749,80759,80774,80818,80849,80929,81026,81051,81118,81284,81300,81340,81368,81624,81727,81857,81873,81945,82138,82140,82141,82326,82341,82474,82476,82563,82623,82624);


-- client role will need two passes
-- 1. based on new client masters, the in subquery is a copy of the first query except the order by clause
SELECT * FROM client_role WHERE n_clt_id IN (SELECT n_clt_id  FROM CLIENT_MASTER WHERE (d_clt_bk BETWEEN '2009-02-10 13:15:00.000' AND '2009-02-10 17:10:30.000') AND n_clt_id NOT IN (804,823,70692,70801,70860,70936,70945,70986,70997,71055,71087,71212,71370,71441,71537,71582,71660,71666,71671,71707,71801,71843,71854,71863,71870,71891,71916,72195,72257,72324,72382,72439,72860,73154,73306,73432,73579,73672,73702,73708,73714,73727,73732,73752,73759,73767,73836,73846,73854,73864,73914,73982,74029,74034,74081,74124,74125,74211,74232,74252,74294,74311,74366,74378,74384,74632,74742,74791,74817,74841,74843,74878,78898,79027,79034,79130,79144,79165,79221,79279,79339,79372,79397,79445,79535,79550,79558,79583,79907,79975,80013,80035,80064,80108,80111,80162,80207,80280,80285,80384,80526,80584,80717,80738,80749,80759,80774,80818,80849,80929,81026,81051,81118,81284,81300,81340,81368,81624,81727,81857,81873,81945,82138,82140,82141,82326,82341,82474,82476,82563,82623,82624));
-- 2. based on new prospects for old masters
SELECT * FROM client_role WHERE (d_crol_bk BETWEEN '2009-02-10 13:15:00.000' AND '2009-02-10 17:10:30.000') AND n_clt_id in (804,823,70692,70801,70860,70936,70945,70986,70997,71055,71087,71212,71370,71441,71537,71582,71660,71666,71671,71707,71801,71843,71854,71863,71870,71891,71916,72195,72257,72324,72382,72439,72860,73154,73306,73432,73579,73672,73702,73708,73714,73727,73732,73752,73759,73767,73836,73846,73854,73864,73914,73982,74029,74034,74081,74124,74125,74211,74232,74252,74294,74311,74366,74378,74384,74632,74742,74791,74817,74841,74843,74878,78898,79027,79034,79130,79144,79165,79221,79279,79339,79372,79397,79445,79535,79550,79558,79583,79907,79975,80013,80035,80064,80108,80111,80162,80207,80280,80285,80384,80526,80584,80717,80738,80749,80759,80774,80818,80849,80929,81026,81051,81118,81284,81300,81340,81368,81624,81727,81857,81873,81945,82138,82140,82141,82326,82341,82474,82476,82563,82623,82624);

-- Q to select concerned master history entries, the in subquery is a copy of the first query except the order by clause
SELECT *  FROM CLIENT_MASTER_h WHERE n_clt_id IN (
SELECT n_clt_id  FROM CLIENT_MASTER WHERE (d_clt_bk BETWEEN '2009-02-10 13:15:00.000' AND '2009-02-10 17:10:30.000') AND n_clt_id NOT IN (804,823,70692,70801,70860,70936,70945,70986,70997,71055,71087,71212,71370,71441,71537,71582,71660,71666,71671,71707,71801,71843,71854,71863,71870,71891,71916,72195,72257,72324,72382,72439,72860,73154,73306,73432,73579,73672,73702,73708,73714,73727,73732,73752,73759,73767,73836,73846,73854,73864,73914,73982,74029,74034,74081,74124,74125,74211,74232,74252,74294,74311,74366,74378,74384,74632,74742,74791,74817,74841,74843,74878,78898,79027,79034,79130,79144,79165,79221,79279,79339,79372,79397,79445,79535,79550,79558,79583,79907,79975,80013,80035,80064,80108,80111,80162,80207,80280,80285,80384,80526,80584,80717,80738,80749,80759,80774,80818,80849,80929,81026,81051,81118,81284,81300,81340,81368,81624,81727,81857,81873,81945,82138,82140,82141,82326,82341,82474,82476,82563,82623,82624));

-- Q to select concerned master entries, the in subquery is a copy of the first query except the order by clause
SELECT *  FROM CLIENT_MASTER WHERE n_clt_id IN (
SELECT n_clt_id  FROM CLIENT_MASTER WHERE (d_clt_bk BETWEEN '2009-02-10 13:15:00.000' AND '2009-02-10 17:10:30.000') AND n_clt_id NOT IN (804,823,70692,70801,70860,70936,70945,70986,70997,71055,71087,71212,71370,71441,71537,71582,71660,71666,71671,71707,71801,71843,71854,71863,71870,71891,71916,72195,72257,72324,72382,72439,72860,73154,73306,73432,73579,73672,73702,73708,73714,73727,73732,73752,73759,73767,73836,73846,73854,73864,73914,73982,74029,74034,74081,74124,74125,74211,74232,74252,74294,74311,74366,74378,74384,74632,74742,74791,74817,74841,74843,74878,78898,79027,79034,79130,79144,79165,79221,79279,79339,79372,79397,79445,79535,79550,79558,79583,79907,79975,80013,80035,80064,80108,80111,80162,80207,80280,80285,80384,80526,80584,80717,80738,80749,80759,80774,80818,80849,80929,81026,81051,81118,81284,81300,81340,81368,81624,81727,81857,81873,81945,82138,82140,82141,82326,82341,82474,82476,82563,82623,82624));

/*********************** END BUILD SELECT QUERIES *********************************/

/***************************** BUILD DELETE QUERIES (JUST FIND 'DELETE' AND REPLACE DELETE FROM THE ABOVE) **********************************/
-- ORDERED STEPS
-- REVISIT : SEARCH LABEL ENTRIES, SKIPPING AT THIS TIME
-- REVISIT : LABEL ENTRIES, SKIPPING AT THIS TIME
-- DELETE ROLE HISTORY ENTRIES
-- DELETE ROLE ENTRIES
-- DELETE MASTER HISTORY ENTRIES
-- DELETE MASTER ENTRIES

-- get master ids we are concerned with, this query will be used for role and history
SELECT n_clt_id  FROM CLIENT_MASTER WHERE (d_clt_bk BETWEEN '2009-02-10 13:15:00.000' AND '2009-02-10 17:10:30.000') AND n_clt_id NOT IN (804,823,70692,70801,70860,70936,70945,70986,70997,71055,71087,71212,71370,71441,71537,71582,71660,71666,71671,71707,71801,71843,71854,71863,71870,71891,71916,72195,72257,72324,72382,72439,72860,73154,73306,73432,73579,73672,73702,73708,73714,73727,73732,73752,73759,73767,73836,73846,73854,73864,73914,73982,74029,74034,74081,74124,74125,74211,74232,74252,74294,74311,74366,74378,74384,74632,74742,74791,74817,74841,74843,74878,78898,79027,79034,79130,79144,79165,79221,79279,79339,79372,79397,79445,79535,79550,79558,79583,79907,79975,80013,80035,80064,80108,80111,80162,80207,80280,80285,80384,80526,80584,80717,80738,80749,80759,80774,80818,80849,80929,81026,81051,81118,81284,81300,81340,81368,81624,81727,81857,81873,81945,82138,82140,82141,82326,82341,82474,82476,82563,82623,82624) ORDER BY n_clt_id DESC;

-- get our role ids we are concerned with
SELECT n_clt_lbl_id FROM informix.client_role WHERE (d_crol_bk BETWEEN '2009-02-10 13:15:00.000' AND '2009-02-10 17:10:30.000') AND t_crol_sys_id = 'CLRN' ORDER BY n_clt_lbl_id DESC;


--TODO : client_label_srch, the in subquery is a copy of the second query except the order by clause
DELETE FROM informix.client_label_srch WHERE n_clt_lbl_id IN (SELECT n_clt_lbl_id FROM informix.client_role WHERE (d_crol_bk BETWEEN '2009-02-10 13:15:00.000' AND '2009-02-10 17:10:30.000') AND t_crol_sys_id = 'CLRN')


--TODO : client_label, the in subquery is a copy of the second query except the order by clause
DELETE FROM informix.client_label WHERE n_clt_lbl_id IN (SELECT n_clt_lbl_id FROM informix.client_role WHERE (d_crol_bk BETWEEN '2009-02-10 13:15:00.000' AND '2009-02-10 17:10:30.000') AND t_crol_sys_id = 'CLRN')

-- client role history will need two passes
-- 1. based on new client masters, the in subquery is a copy of the first query except the order by clause
DELETE FROM client_role_h WHERE n_clt_id IN (SELECT n_clt_id  FROM CLIENT_MASTER WHERE (d_clt_bk BETWEEN '2009-02-10 13:15:00.000' AND '2009-02-10 17:10:30.000') AND n_clt_id NOT IN (804,823,70692,70801,70860,70936,70945,70986,70997,71055,71087,71212,71370,71441,71537,71582,71660,71666,71671,71707,71801,71843,71854,71863,71870,71891,71916,72195,72257,72324,72382,72439,72860,73154,73306,73432,73579,73672,73702,73708,73714,73727,73732,73752,73759,73767,73836,73846,73854,73864,73914,73982,74029,74034,74081,74124,74125,74211,74232,74252,74294,74311,74366,74378,74384,74632,74742,74791,74817,74841,74843,74878,78898,79027,79034,79130,79144,79165,79221,79279,79339,79372,79397,79445,79535,79550,79558,79583,79907,79975,80013,80035,80064,80108,80111,80162,80207,80280,80285,80384,80526,80584,80717,80738,80749,80759,80774,80818,80849,80929,81026,81051,81118,81284,81300,81340,81368,81624,81727,81857,81873,81945,82138,82140,82141,82326,82341,82474,82476,82563,82623,82624));
-- 2. based on new prospects for old masters
DELETE FROM client_role_h WHERE (d_crol_bk BETWEEN '2009-02-10 13:15:00.000' AND '2009-02-10 17:10:30.000') AND n_clt_id in (804,823,70692,70801,70860,70936,70945,70986,70997,71055,71087,71212,71370,71441,71537,71582,71660,71666,71671,71707,71801,71843,71854,71863,71870,71891,71916,72195,72257,72324,72382,72439,72860,73154,73306,73432,73579,73672,73702,73708,73714,73727,73732,73752,73759,73767,73836,73846,73854,73864,73914,73982,74029,74034,74081,74124,74125,74211,74232,74252,74294,74311,74366,74378,74384,74632,74742,74791,74817,74841,74843,74878,78898,79027,79034,79130,79144,79165,79221,79279,79339,79372,79397,79445,79535,79550,79558,79583,79907,79975,80013,80035,80064,80108,80111,80162,80207,80280,80285,80384,80526,80584,80717,80738,80749,80759,80774,80818,80849,80929,81026,81051,81118,81284,81300,81340,81368,81624,81727,81857,81873,81945,82138,82140,82141,82326,82341,82474,82476,82563,82623,82624);


-- client role will need two passes
-- 1. based on new client masters, the in subquery is a copy of the first query except the order by clause
DELETE FROM client_role WHERE n_clt_id IN (SELECT n_clt_id  FROM CLIENT_MASTER WHERE (d_clt_bk BETWEEN '2009-02-10 13:15:00.000' AND '2009-02-10 17:10:30.000') AND n_clt_id NOT IN (804,823,70692,70801,70860,70936,70945,70986,70997,71055,71087,71212,71370,71441,71537,71582,71660,71666,71671,71707,71801,71843,71854,71863,71870,71891,71916,72195,72257,72324,72382,72439,72860,73154,73306,73432,73579,73672,73702,73708,73714,73727,73732,73752,73759,73767,73836,73846,73854,73864,73914,73982,74029,74034,74081,74124,74125,74211,74232,74252,74294,74311,74366,74378,74384,74632,74742,74791,74817,74841,74843,74878,78898,79027,79034,79130,79144,79165,79221,79279,79339,79372,79397,79445,79535,79550,79558,79583,79907,79975,80013,80035,80064,80108,80111,80162,80207,80280,80285,80384,80526,80584,80717,80738,80749,80759,80774,80818,80849,80929,81026,81051,81118,81284,81300,81340,81368,81624,81727,81857,81873,81945,82138,82140,82141,82326,82341,82474,82476,82563,82623,82624));
-- 2. based on new prospects for old masters
DELETE FROM client_role WHERE (d_crol_bk BETWEEN '2009-02-10 13:15:00.000' AND '2009-02-10 17:10:30.000') AND n_clt_id in (804,823,70692,70801,70860,70936,70945,70986,70997,71055,71087,71212,71370,71441,71537,71582,71660,71666,71671,71707,71801,71843,71854,71863,71870,71891,71916,72195,72257,72324,72382,72439,72860,73154,73306,73432,73579,73672,73702,73708,73714,73727,73732,73752,73759,73767,73836,73846,73854,73864,73914,73982,74029,74034,74081,74124,74125,74211,74232,74252,74294,74311,74366,74378,74384,74632,74742,74791,74817,74841,74843,74878,78898,79027,79034,79130,79144,79165,79221,79279,79339,79372,79397,79445,79535,79550,79558,79583,79907,79975,80013,80035,80064,80108,80111,80162,80207,80280,80285,80384,80526,80584,80717,80738,80749,80759,80774,80818,80849,80929,81026,81051,81118,81284,81300,81340,81368,81624,81727,81857,81873,81945,82138,82140,82141,82326,82341,82474,82476,82563,82623,82624);

-- Q to select concerned master history entries, the in subquery is a copy of the first query except the order by clause
DELETE  FROM CLIENT_MASTER_h WHERE n_clt_id IN (
SELECT n_clt_id  FROM CLIENT_MASTER WHERE (d_clt_bk BETWEEN '2009-02-10 13:15:00.000' AND '2009-02-10 17:10:30.000') AND n_clt_id NOT IN (804,823,70692,70801,70860,70936,70945,70986,70997,71055,71087,71212,71370,71441,71537,71582,71660,71666,71671,71707,71801,71843,71854,71863,71870,71891,71916,72195,72257,72324,72382,72439,72860,73154,73306,73432,73579,73672,73702,73708,73714,73727,73732,73752,73759,73767,73836,73846,73854,73864,73914,73982,74029,74034,74081,74124,74125,74211,74232,74252,74294,74311,74366,74378,74384,74632,74742,74791,74817,74841,74843,74878,78898,79027,79034,79130,79144,79165,79221,79279,79339,79372,79397,79445,79535,79550,79558,79583,79907,79975,80013,80035,80064,80108,80111,80162,80207,80280,80285,80384,80526,80584,80717,80738,80749,80759,80774,80818,80849,80929,81026,81051,81118,81284,81300,81340,81368,81624,81727,81857,81873,81945,82138,82140,82141,82326,82341,82474,82476,82563,82623,82624));

-- Q to select concerned master entries, the in subquery is a copy of the first query except the order by clause
DELETE  FROM CLIENT_MASTER WHERE n_clt_id IN (
SELECT n_clt_id  FROM CLIENT_MASTER WHERE (d_clt_bk BETWEEN '2009-02-10 13:15:00.000' AND '2009-02-10 17:10:30.000') AND n_clt_id NOT IN (804,823,70692,70801,70860,70936,70945,70986,70997,71055,71087,71212,71370,71441,71537,71582,71660,71666,71671,71707,71801,71843,71854,71863,71870,71891,71916,72195,72257,72324,72382,72439,72860,73154,73306,73432,73579,73672,73702,73708,73714,73727,73732,73752,73759,73767,73836,73846,73854,73864,73914,73982,74029,74034,74081,74124,74125,74211,74232,74252,74294,74311,74366,74378,74384,74632,74742,74791,74817,74841,74843,74878,78898,79027,79034,79130,79144,79165,79221,79279,79339,79372,79397,79445,79535,79550,79558,79583,79907,79975,80013,80035,80064,80108,80111,80162,80207,80280,80285,80384,80526,80584,80717,80738,80749,80759,80774,80818,80849,80929,81026,81051,81118,81284,81300,81340,81368,81624,81727,81857,81873,81945,82138,82140,82141,82326,82341,82474,82476,82563,82623,82624));

/***************************** END BUILD DELETE QUERIES (JUST FIND 'DELETE' AND REPLACE DELETE FROM THE ABOVE) **********************************/

/************************** actually run queries TODO : will analyze later *************************************************/
-- ORDERED STEPS
-- REVISIT : SEARCH LABEL ENTRIES, SKIPPING AT THIS TIME
-- REVISIT : LABEL ENTRIES, SKIPPING AT THIS TIME
-- DELETE ROLE HISTORY ENTRIES
-- DELETE ROLE ENTRIES
-- DELETE MASTER HISTORY ENTRIES
-- DELETE MASTER ENTRIES

-- get master ids we are concerned with, this query will be used for role and history
SELECT n_clt_id  FROM CLIENT_MASTER WHERE (d_clt_bk BETWEEN '2009-02-10 13:15:00.000' AND '2009-02-10 17:10:30.000') AND n_clt_id NOT IN (804,823,70692,70801,70860,70936,70945,70986,70997,71055,71087,71212,71370,71441,71537,71582,71660,71666,71671,71707,71801,71843,71854,71863,71870,71891,71916,72195,72257,72324,72382,72439,72860,73154,73306,73432,73579,73672,73702,73708,73714,73727,73732,73752,73759,73767,73836,73846,73854,73864,73914,73982,74029,74034,74081,74124,74125,74211,74232,74252,74294,74311,74366,74378,74384,74632,74742,74791,74817,74841,74843,74878,78898,79027,79034,79130,79144,79165,79221,79279,79339,79372,79397,79445,79535,79550,79558,79583,79907,79975,80013,80035,80064,80108,80111,80162,80207,80280,80285,80384,80526,80584,80717,80738,80749,80759,80774,80818,80849,80929,81026,81051,81118,81284,81300,81340,81368,81624,81727,81857,81873,81945,82138,82140,82141,82326,82341,82474,82476,82563,82623,82624) ORDER BY n_clt_id DESC;

-- get our role ids we are concerned with
SELECT n_clt_lbl_id FROM informix.client_role WHERE (d_crol_bk BETWEEN '2009-02-10 13:15:00.000' AND '2009-02-10 17:10:30.000') AND t_crol_sys_id = 'CLRN' ORDER BY n_clt_lbl_id DESC;


--TODO : client_label_srch, the in subquery is a copy of the second query except the order by clause
DELETE FROM informix.client_label_srch WHERE n_clt_lbl_id IN (SELECT n_clt_lbl_id FROM informix.client_role WHERE (d_crol_bk BETWEEN '2009-02-10 13:15:00.000' AND '2009-02-10 17:10:30.000') AND t_crol_sys_id = 'CLRN')


--TODO : client_label, the in subquery is a copy of the second query except the order by clause
DELETE FROM informix.client_label WHERE n_clt_lbl_id IN (SELECT n_clt_lbl_id FROM informix.client_role WHERE (d_crol_bk BETWEEN '2009-02-10 13:15:00.000' AND '2009-02-10 17:10:30.000') AND t_crol_sys_id = 'CLRN')

-- client role history will need two passes
-- 1. based on new client masters, the in subquery is a copy of the first query except the order by clause
DELETE FROM client_role_h WHERE n_clt_id IN (SELECT n_clt_id  FROM CLIENT_MASTER WHERE (d_clt_bk BETWEEN '2009-02-10 13:15:00.000' AND '2009-02-10 17:10:30.000') AND n_clt_id NOT IN (804,823,70692,70801,70860,70936,70945,70986,70997,71055,71087,71212,71370,71441,71537,71582,71660,71666,71671,71707,71801,71843,71854,71863,71870,71891,71916,72195,72257,72324,72382,72439,72860,73154,73306,73432,73579,73672,73702,73708,73714,73727,73732,73752,73759,73767,73836,73846,73854,73864,73914,73982,74029,74034,74081,74124,74125,74211,74232,74252,74294,74311,74366,74378,74384,74632,74742,74791,74817,74841,74843,74878,78898,79027,79034,79130,79144,79165,79221,79279,79339,79372,79397,79445,79535,79550,79558,79583,79907,79975,80013,80035,80064,80108,80111,80162,80207,80280,80285,80384,80526,80584,80717,80738,80749,80759,80774,80818,80849,80929,81026,81051,81118,81284,81300,81340,81368,81624,81727,81857,81873,81945,82138,82140,82141,82326,82341,82474,82476,82563,82623,82624));
-- 2. based on new prospects for old masters
DELETE FROM client_role_h WHERE (d_crol_bk BETWEEN '2009-02-10 13:15:00.000' AND '2009-02-10 17:10:30.000') AND n_clt_id in (804,823,70692,70801,70860,70936,70945,70986,70997,71055,71087,71212,71370,71441,71537,71582,71660,71666,71671,71707,71801,71843,71854,71863,71870,71891,71916,72195,72257,72324,72382,72439,72860,73154,73306,73432,73579,73672,73702,73708,73714,73727,73732,73752,73759,73767,73836,73846,73854,73864,73914,73982,74029,74034,74081,74124,74125,74211,74232,74252,74294,74311,74366,74378,74384,74632,74742,74791,74817,74841,74843,74878,78898,79027,79034,79130,79144,79165,79221,79279,79339,79372,79397,79445,79535,79550,79558,79583,79907,79975,80013,80035,80064,80108,80111,80162,80207,80280,80285,80384,80526,80584,80717,80738,80749,80759,80774,80818,80849,80929,81026,81051,81118,81284,81300,81340,81368,81624,81727,81857,81873,81945,82138,82140,82141,82326,82341,82474,82476,82563,82623,82624);


-- client role will need two passes
-- 1. based on new client masters, the in subquery is a copy of the first query except the order by clause
DELETE FROM client_role WHERE n_clt_id IN (SELECT n_clt_id  FROM CLIENT_MASTER WHERE (d_clt_bk BETWEEN '2009-02-10 13:15:00.000' AND '2009-02-10 17:10:30.000') AND n_clt_id NOT IN (804,823,70692,70801,70860,70936,70945,70986,70997,71055,71087,71212,71370,71441,71537,71582,71660,71666,71671,71707,71801,71843,71854,71863,71870,71891,71916,72195,72257,72324,72382,72439,72860,73154,73306,73432,73579,73672,73702,73708,73714,73727,73732,73752,73759,73767,73836,73846,73854,73864,73914,73982,74029,74034,74081,74124,74125,74211,74232,74252,74294,74311,74366,74378,74384,74632,74742,74791,74817,74841,74843,74878,78898,79027,79034,79130,79144,79165,79221,79279,79339,79372,79397,79445,79535,79550,79558,79583,79907,79975,80013,80035,80064,80108,80111,80162,80207,80280,80285,80384,80526,80584,80717,80738,80749,80759,80774,80818,80849,80929,81026,81051,81118,81284,81300,81340,81368,81624,81727,81857,81873,81945,82138,82140,82141,82326,82341,82474,82476,82563,82623,82624))
        AND n_crol_id NOT in (174997,174998,175003,175004,175005,175008);
-- NOTE : AND n_crol_id NOT in (174997,174998,175003,175004,175005,175008); was got from role entries reference by client_phone table.


-- 2. based on new prospects for old masters
DELETE FROM client_role WHERE (d_crol_bk BETWEEN '2009-02-10 13:15:00.000' AND '2009-02-10 17:10:30.000') AND n_clt_id in (804,823,70692,70801,70860,70936,70945,70986,70997,71055,71087,71212,71370,71441,71537,71582,71660,71666,71671,71707,71801,71843,71854,71863,71870,71891,71916,72195,72257,72324,72382,72439,72860,73154,73306,73432,73579,73672,73702,73708,73714,73727,73732,73752,73759,73767,73836,73846,73854,73864,73914,73982,74029,74034,74081,74124,74125,74211,74232,74252,74294,74311,74366,74378,74384,74632,74742,74791,74817,74841,74843,74878,78898,79027,79034,79130,79144,79165,79221,79279,79339,79372,79397,79445,79535,79550,79558,79583,79907,79975,80013,80035,80064,80108,80111,80162,80207,80280,80285,80384,80526,80584,80717,80738,80749,80759,80774,80818,80849,80929,81026,81051,81118,81284,81300,81340,81368,81624,81727,81857,81873,81945,82138,82140,82141,82326,82341,82474,82476,82563,82623,82624);

-- Q to select concerned master history entries, the in subquery is a copy of the first query except the order by clause
DELETE  FROM CLIENT_MASTER_h WHERE n_clt_id IN (
SELECT n_clt_id  FROM CLIENT_MASTER WHERE (d_clt_bk BETWEEN '2009-02-10 13:15:00.000' AND '2009-02-10 17:10:30.000') AND n_clt_id NOT IN (804,823,70692,70801,70860,70936,70945,70986,70997,71055,71087,71212,71370,71441,71537,71582,71660,71666,71671,71707,71801,71843,71854,71863,71870,71891,71916,72195,72257,72324,72382,72439,72860,73154,73306,73432,73579,73672,73702,73708,73714,73727,73732,73752,73759,73767,73836,73846,73854,73864,73914,73982,74029,74034,74081,74124,74125,74211,74232,74252,74294,74311,74366,74378,74384,74632,74742,74791,74817,74841,74843,74878,78898,79027,79034,79130,79144,79165,79221,79279,79339,79372,79397,79445,79535,79550,79558,79583,79907,79975,80013,80035,80064,80108,80111,80162,80207,80280,80285,80384,80526,80584,80717,80738,80749,80759,80774,80818,80849,80929,81026,81051,81118,81284,81300,81340,81368,81624,81727,81857,81873,81945,82138,82140,82141,82326,82341,82474,82476,82563,82623,82624));

-- Q to select concerned master entries, the in subquery is a copy of the first query except the order by clause
DELETE  FROM CLIENT_MASTER WHERE n_clt_id IN (
SELECT n_clt_id  FROM CLIENT_MASTER WHERE (d_clt_bk BETWEEN '2009-02-10 13:15:00.000' AND '2009-02-10 17:10:30.000') AND n_clt_id NOT IN (804,823,70692,70801,70860,70936,70945,70986,70997,71055,71087,71212,71370,71441,71537,71582,71660,71666,71671,71707,71801,71843,71854,71863,71870,71891,71916,72195,72257,72324,72382,72439,72860,73154,73306,73432,73579,73672,73702,73708,73714,73727,73732,73752,73759,73767,73836,73846,73854,73864,73914,73982,74029,74034,74081,74124,74125,74211,74232,74252,74294,74311,74366,74378,74384,74632,74742,74791,74817,74841,74843,74878,78898,79027,79034,79130,79144,79165,79221,79279,79339,79372,79397,79445,79535,79550,79558,79583,79907,79975,80013,80035,80064,80108,80111,80162,80207,80280,80285,80384,80526,80584,80717,80738,80749,80759,80774,80818,80849,80929,81026,81051,81118,81284,81300,81340,81368,81624,81727,81857,81873,81945,82138,82140,82141,82326,82341,82474,82476,82563,82623,82624));

-- build a temp table to be used in sub query, since its giving a problem
--SELECT * FROM customer INTO TEMP cust_temp
SELECT * FROM CLIENT_MASTER INTO TEMP u_r_temp;
SELECT Count(*) from u_r_temp;
DELETE  FROM CLIENT_MASTER WHERE n_clt_id IN (
SELECT n_clt_id  FROM u_r_temp WHERE (d_clt_bk BETWEEN '2009-02-10 13:15:00.000' AND '2009-02-10 17:10:30.000') AND n_clt_id NOT IN (804,823,70692,70801,70860,70936,70945,70986,70997,71055,71087,71212,71370,71441,71537,71582,71660,71666,71671,71707,71801,71843,71854,71863,71870,71891,71916,72195,72257,72324,72382,72439,72860,73154,73306,73432,73579,73672,73702,73708,73714,73727,73732,73752,73759,73767,73836,73846,73854,73864,73914,73982,74029,74034,74081,74124,74125,74211,74232,74252,74294,74311,74366,74378,74384,74632,74742,74791,74817,74841,74843,74878,78898,79027,79034,79130,79144,79165,79221,79279,79339,79372,79397,79445,79535,79550,79558,79583,79907,79975,80013,80035,80064,80108,80111,80162,80207,80280,80285,80384,80526,80584,80717,80738,80749,80759,80774,80818,80849,80929,81026,81051,81118,81284,81300,81340,81368,81624,81727,81857,81873,81945,82138,82140,82141,82326,82341,82474,82476,82563,82623,82624))
and n_clt_id not in (70089,70091);



/************************** end actually run queries TODO : will analyze later *************************************************/

/************************** actually run queries TODO : will analyze later  on 02/12/2009*************************************************/
-- ORDERED STEPS
-- REVISIT : SEARCH LABEL ENTRIES, SKIPPING AT THIS TIME
-- REVISIT : LABEL ENTRIES, SKIPPING AT THIS TIME
-- DELETE ROLE HISTORY ENTRIES
-- DELETE ROLE ENTRIES
-- DELETE MASTER HISTORY ENTRIES
-- DELETE MASTER ENTRIES

-- get master ids we are concerned with, this query will be used for role and history
SELECT n_clt_id  FROM CLIENT_MASTER WHERE (d_clt_bk BETWEEN '2009-02-12 08:35:01.353' AND '2009-02-12 13:22:49.143') AND n_clt_id NOT IN (804,823,70692,70801,70860,70936,70945,70986,70997,71055,71087,71212,71370,71441,71537,71582,71660,71666,71671,71707,71801,71843,71854,71863,71870,71891,71916,72195,72257,72324,72382,72439,72860,73154,73306,73432,73579,73672,73702,73708,73714,73727,73732,73752,73759,73767,73836,73846,73854,73864,73914,73982,74029,74034,74081,74124,74125,74211,74232,74252,74294,74311,74366,74378,74384,74632,74742,74791,74817,74841,74843,74878,78898,79027,79034,79130,79144,79165,79221,79279,79339,79372,79397,79445,79535,79550,79558,79583,79907,79975,80013,80035,80064,80108,80111,80162,80207,80280,80285,80384,80526,80584,80717,80738,80749,80759,80774,80818,80849,80929,81026,81051,81118,81284,81300,81340,81368,81624,81727,81857,81873,81945,82138,82140,82141,82326,82341,82474,82476,82563,82623,82624) ORDER BY n_clt_id DESC;

-- get our role ids we are concerned with
SELECT n_clt_lbl_id FROM informix.client_role WHERE (d_crol_bk BETWEEN '2009-02-12 08:35:01.353' AND '2009-02-12 13:22:49.143') AND t_crol_sys_id = 'CLRN' ORDER BY n_clt_lbl_id DESC;


--TODO : client_label_srch, the in subquery is a copy of the second query except the order by clause
DELETE FROM informix.client_label_srch WHERE n_clt_lbl_id IN (SELECT n_clt_lbl_id FROM informix.client_role WHERE (d_crol_bk BETWEEN '2009-02-12 08:35:01.353' AND '2009-02-12 13:22:49.143') AND t_crol_sys_id = 'CLRN')


--TODO : client_label, the in subquery is a copy of the second query except the order by clause
DELETE FROM informix.client_label WHERE n_clt_lbl_id IN (SELECT n_clt_lbl_id FROM informix.client_role WHERE (d_crol_bk BETWEEN '2009-02-12 08:35:01.353' AND '2009-02-12 13:22:49.143') AND t_crol_sys_id = 'CLRN')

-- client role history will need two passes
-- 1. based on new client masters, the in subquery is a copy of the first query except the order by clause
DELETE FROM client_role_h WHERE n_clt_id IN (SELECT n_clt_id  FROM CLIENT_MASTER WHERE (d_clt_bk BETWEEN '2009-02-12 08:35:01.353' AND '2009-02-12 13:22:49.143') AND n_clt_id NOT IN (804,823,70692,70801,70860,70936,70945,70986,70997,71055,71087,71212,71370,71441,71537,71582,71660,71666,71671,71707,71801,71843,71854,71863,71870,71891,71916,72195,72257,72324,72382,72439,72860,73154,73306,73432,73579,73672,73702,73708,73714,73727,73732,73752,73759,73767,73836,73846,73854,73864,73914,73982,74029,74034,74081,74124,74125,74211,74232,74252,74294,74311,74366,74378,74384,74632,74742,74791,74817,74841,74843,74878,78898,79027,79034,79130,79144,79165,79221,79279,79339,79372,79397,79445,79535,79550,79558,79583,79907,79975,80013,80035,80064,80108,80111,80162,80207,80280,80285,80384,80526,80584,80717,80738,80749,80759,80774,80818,80849,80929,81026,81051,81118,81284,81300,81340,81368,81624,81727,81857,81873,81945,82138,82140,82141,82326,82341,82474,82476,82563,82623,82624));
-- 2. based on new prospects for old masters
DELETE FROM client_role_h WHERE (d_crol_bk BETWEEN '2009-02-12 08:35:01.353' AND '2009-02-12 13:22:49.143') AND n_clt_id in (804,823,70692,70801,70860,70936,70945,70986,70997,71055,71087,71212,71370,71441,71537,71582,71660,71666,71671,71707,71801,71843,71854,71863,71870,71891,71916,72195,72257,72324,72382,72439,72860,73154,73306,73432,73579,73672,73702,73708,73714,73727,73732,73752,73759,73767,73836,73846,73854,73864,73914,73982,74029,74034,74081,74124,74125,74211,74232,74252,74294,74311,74366,74378,74384,74632,74742,74791,74817,74841,74843,74878,78898,79027,79034,79130,79144,79165,79221,79279,79339,79372,79397,79445,79535,79550,79558,79583,79907,79975,80013,80035,80064,80108,80111,80162,80207,80280,80285,80384,80526,80584,80717,80738,80749,80759,80774,80818,80849,80929,81026,81051,81118,81284,81300,81340,81368,81624,81727,81857,81873,81945,82138,82140,82141,82326,82341,82474,82476,82563,82623,82624);


-- client role will need two passes
-- 1. based on new client masters, the in subquery is a copy of the first query except the order by clause
DELETE FROM client_role WHERE n_clt_id IN (SELECT n_clt_id  FROM CLIENT_MASTER WHERE (d_clt_bk BETWEEN '2009-02-12 08:35:01.353' AND '2009-02-12 13:22:49.143') AND n_clt_id NOT IN (804,823,70692,70801,70860,70936,70945,70986,70997,71055,71087,71212,71370,71441,71537,71582,71660,71666,71671,71707,71801,71843,71854,71863,71870,71891,71916,72195,72257,72324,72382,72439,72860,73154,73306,73432,73579,73672,73702,73708,73714,73727,73732,73752,73759,73767,73836,73846,73854,73864,73914,73982,74029,74034,74081,74124,74125,74211,74232,74252,74294,74311,74366,74378,74384,74632,74742,74791,74817,74841,74843,74878,78898,79027,79034,79130,79144,79165,79221,79279,79339,79372,79397,79445,79535,79550,79558,79583,79907,79975,80013,80035,80064,80108,80111,80162,80207,80280,80285,80384,80526,80584,80717,80738,80749,80759,80774,80818,80849,80929,81026,81051,81118,81284,81300,81340,81368,81624,81727,81857,81873,81945,82138,82140,82141,82326,82341,82474,82476,82563,82623,82624))
        AND n_crol_id NOT in (174997,174998,175003,175004,175005,175008);
-- NOTE : AND n_crol_id NOT in (174997,174998,175003,175004,175005,175008); was got from role entries reference by client_phone table.


-- 2. based on new prospects for old masters
DELETE FROM client_role WHERE (d_crol_bk BETWEEN '2009-02-12 08:35:01.353' AND '2009-02-12 13:22:49.143') AND n_clt_id in (804,823,70692,70801,70860,70936,70945,70986,70997,71055,71087,71212,71370,71441,71537,71582,71660,71666,71671,71707,71801,71843,71854,71863,71870,71891,71916,72195,72257,72324,72382,72439,72860,73154,73306,73432,73579,73672,73702,73708,73714,73727,73732,73752,73759,73767,73836,73846,73854,73864,73914,73982,74029,74034,74081,74124,74125,74211,74232,74252,74294,74311,74366,74378,74384,74632,74742,74791,74817,74841,74843,74878,78898,79027,79034,79130,79144,79165,79221,79279,79339,79372,79397,79445,79535,79550,79558,79583,79907,79975,80013,80035,80064,80108,80111,80162,80207,80280,80285,80384,80526,80584,80717,80738,80749,80759,80774,80818,80849,80929,81026,81051,81118,81284,81300,81340,81368,81624,81727,81857,81873,81945,82138,82140,82141,82326,82341,82474,82476,82563,82623,82624);

-- Q to select concerned master history entries, the in subquery is a copy of the first query except the order by clause
DELETE  FROM CLIENT_MASTER_h WHERE n_clt_id IN (
SELECT n_clt_id  FROM CLIENT_MASTER WHERE (d_clt_bk BETWEEN '2009-02-12 08:35:01.353' AND '2009-02-12 13:22:49.143') AND n_clt_id NOT IN (804,823,70692,70801,70860,70936,70945,70986,70997,71055,71087,71212,71370,71441,71537,71582,71660,71666,71671,71707,71801,71843,71854,71863,71870,71891,71916,72195,72257,72324,72382,72439,72860,73154,73306,73432,73579,73672,73702,73708,73714,73727,73732,73752,73759,73767,73836,73846,73854,73864,73914,73982,74029,74034,74081,74124,74125,74211,74232,74252,74294,74311,74366,74378,74384,74632,74742,74791,74817,74841,74843,74878,78898,79027,79034,79130,79144,79165,79221,79279,79339,79372,79397,79445,79535,79550,79558,79583,79907,79975,80013,80035,80064,80108,80111,80162,80207,80280,80285,80384,80526,80584,80717,80738,80749,80759,80774,80818,80849,80929,81026,81051,81118,81284,81300,81340,81368,81624,81727,81857,81873,81945,82138,82140,82141,82326,82341,82474,82476,82563,82623,82624));

-- Q to select concerned master entries, the in subquery is a copy of the first query except the order by clause
DELETE  FROM CLIENT_MASTER WHERE n_clt_id IN (
SELECT n_clt_id  FROM CLIENT_MASTER WHERE (d_clt_bk BETWEEN '2009-02-12 08:35:01.353' AND '2009-02-12 13:22:49.143') AND n_clt_id NOT IN (804,823,70692,70801,70860,70936,70945,70986,70997,71055,71087,71212,71370,71441,71537,71582,71660,71666,71671,71707,71801,71843,71854,71863,71870,71891,71916,72195,72257,72324,72382,72439,72860,73154,73306,73432,73579,73672,73702,73708,73714,73727,73732,73752,73759,73767,73836,73846,73854,73864,73914,73982,74029,74034,74081,74124,74125,74211,74232,74252,74294,74311,74366,74378,74384,74632,74742,74791,74817,74841,74843,74878,78898,79027,79034,79130,79144,79165,79221,79279,79339,79372,79397,79445,79535,79550,79558,79583,79907,79975,80013,80035,80064,80108,80111,80162,80207,80280,80285,80384,80526,80584,80717,80738,80749,80759,80774,80818,80849,80929,81026,81051,81118,81284,81300,81340,81368,81624,81727,81857,81873,81945,82138,82140,82141,82326,82341,82474,82476,82563,82623,82624));

-- build a temp table to be used in sub query, since its giving a problem
--SELECT * FROM customer INTO TEMP cust_temp
SELECT * FROM CLIENT_MASTER INTO TEMP u_r_temp;
SELECT Count(*) from u_r_temp;
DELETE  FROM CLIENT_MASTER WHERE n_clt_id IN (
SELECT n_clt_id  FROM u_r_temp WHERE (d_clt_bk BETWEEN '2009-02-12 08:35:01.353' AND '2009-02-12 13:22:49.143') AND n_clt_id NOT IN (804,823,70692,70801,70860,70936,70945,70986,70997,71055,71087,71212,71370,71441,71537,71582,71660,71666,71671,71707,71801,71843,71854,71863,71870,71891,71916,72195,72257,72324,72382,72439,72860,73154,73306,73432,73579,73672,73702,73708,73714,73727,73732,73752,73759,73767,73836,73846,73854,73864,73914,73982,74029,74034,74081,74124,74125,74211,74232,74252,74294,74311,74366,74378,74384,74632,74742,74791,74817,74841,74843,74878,78898,79027,79034,79130,79144,79165,79221,79279,79339,79372,79397,79445,79535,79550,79558,79583,79907,79975,80013,80035,80064,80108,80111,80162,80207,80280,80285,80384,80526,80584,80717,80738,80749,80759,80774,80818,80849,80929,81026,81051,81118,81284,81300,81340,81368,81624,81727,81857,81873,81945,82138,82140,82141,82326,82341,82474,82476,82563,82623,82624))
and n_clt_id not in (70089,70091);



/************************** end actually run queries TODO : will analyze later  on 02/12/200 *************************************************/

/************************** prod failed runs 12/14/2009, cleaned up on 02/16/2009 *************************************************/

delete from informix.client_label_srch where n_clt_lbl_id in (838551, 838550, 838547)

delete from informix.client_label where n_clt_lbl_id in (838551, 838550, 838547)

delete from informix.client_role_h where n_crol_id in (1842316, 1842320, 1842321)

delete from informix.client_role where n_crol_id in (1842316, 1842320, 1842321)

delete from informix.client_master_h where n_clt_id in (470061, 470063, 470064)

delete from informix.client_master where n_clt_id in (470061, 470063, 470064)

/************************** end prod failed runs 12/14/2009, cleaned up on 02/16/2009 *************************************************/
